{
  "connection": "default",
  "collectionName": "product",
  "info": {
    "name": "product",
    "description": ""
  },
  "options": {
    "timestamps": true
  },
  "attributes": {
    "name": {
      "required": true,
      "type": "string"
    },
    "image": {
      "required": true,
      "type": "string"
    },
    "price": {
      "required": true,
      "type": "string"
    },
    "category": {
      "required": true,
      "type": "string"
    }
  }
}